[
    {
      "fruit_id": 682,
      "name": "arancia navelina",
      "icon": "https://res.cloudinary.com/biorfarm/image/upload/v1561625041/fruits/biorfarm-icon-arancia_navelina_fruit.png",
      "icon_tree": "https://res.cloudinary.com/biorfarm/image/upload/v1561477692/fruits/biorfarm-icon-arancia_navelina_tree.png",
      "img_tree": "https://www.biorfarm.com/wp-content/uploads/2020/03/Arance-Navel-di-Sicilia.jpg",
      "number": 153,
      "co2_unit": 0.07,
      "farmer_name": "Paolo De Falco",
      "location_country": "Corigliano-Rossano, Calabria",
      "location_province": "Piana di Sibari, Corigliano-Rossano (CS)",
      "selected": true,
      "co2": "10,71"
    }
  ]