[
    {
      "fruit_id": 188235,
      "name": "albicocca vesuviana",
      "icon_tree": "https://res.cloudinary.com/biorfarm/image/upload/v1561477692/fruits/biorfarm-icon-albicocca-pellecchiella_tree.png",
      "number": 1,
      "co2_unit": 0.07,
      "farmer_name": "Famiglia Dell'Orto",
      "location_country": "Piana del Sele, Campania",
      "location_province": "Piana del Sele, Salerno (SA)",
      "selected": true,
      "co2": "0,070"
    },
    {
      "fruit_id": 682,
      "name": "arancia navelina",
      "icon": "https://res.cloudinary.com/biorfarm/image/upload/v1561625041/fruits/biorfarm-icon-arancia_navelina_fruit.png",
      "icon_tree": "https://res.cloudinary.com/biorfarm/image/upload/v1561477692/fruits/biorfarm-icon-arancia_navelina_tree.png",
      "img_tree": "https://www.biorfarm.com/wp-content/uploads/2020/03/Arance-Navel-di-Sicilia.jpg",
      "number": 1,
      "co2_unit": 0.07,
      "farmer_name": "Paolo De Falco",
      "location_country": "Corigliano-Rossano, Calabria",
      "location_province": "Piana di Sibari, Corigliano-Rossano (CS)",
      "selected": true,
      "co2": "0,070"
    },
    {
      "fruit_id": 129165,
      "name": "arancia tarocco",
      "icon_tree": "https://res.cloudinary.com/biorfarm/image/upload/v1561478223/fruits/biorfarm-icon-arancia-tarocco_tree.png",
      "number": 1,
      "co2_unit": 0.07,
      "farmer_name": "Angela Arcoria",
      "location_country": "Paternò, Sicilia",
      "location_province": "Paternò, Catania (CT)",
      "selected": true,
      "co2": "0,070"
    },
    {
      "fruit_id": 683,
      "name": "clementina calabrese",
      "icon_tree": "https://res.cloudinary.com/biorfarm/image/upload/v1561477693/fruits/biorfarm-icon-clementina_tree.png",
      "number": 1,
      "co2_unit": 0.06,
      "farmer_name": "Paolo De Falco",
      "location_country": "Corigliano-Rossano, Calabria",
      "location_province": "Piana di Sibari, Corigliano-Rossano (CS)",
      "selected": true,
      "co2": "0,060"
    },
    {
      "fruit_id": 234528,
      "name": "clementina calabrese",
      "icon_tree": "https://res.cloudinary.com/biorfarm/image/upload/v1561477693/fruits/biorfarm-icon-clementina_tree.png",
      "number": 1,
      "co2_unit": 0.06,
      "farmer_name": "Az. Agricola Paolo Maria Lamenza",
      "location_country": "Corigliano-Rossano, Calabria",
      "location_province": "Corigliano-Rossano, Cosenza (CS)",
      "selected": true,
      "co2": "0,060"
    },
    {
      "fruit_id": 73222,
      "name": "fragola melissa puglia",
      "icon_tree": "https://res.cloudinary.com/biorfarm/image/upload/v1591263270/fruits/biorfarm-icon-fragola_tree.png",
      "number": 1,
      "co2_unit": 0.00084,
      "farmer_name": "Famiglia Mansueto",
      "location_country": "Palagianello, Puglia",
      "location_province": "Palagianello, Taranto (TA)",
      "selected": true,
      "co2": "0,001"
    },
    {
      "fruit_id": 62374,
      "name": "kiwi hayward",
      "icon_tree": "https://res.cloudinary.com/biorfarm/image/upload/v1581586234/fruits/biorfarm-icon-kiwi_tree.png",
      "number": 2,
      "co2_unit": 0.00115,
      "farmer_name": "Azienda Agricola Masseria Cesaro",
      "location_country": "Teverola, Campania",
      "location_province": "Teverola, Caserta (CE)",
      "selected": true,
      "co2": "0,002"
    },
    {
      "fruit_id": 74882,
      "name": "mandarino tardivo di ciaculli",
      "icon_tree": "https://res.cloudinary.com/biorfarm/image/upload/v1595409710/fruits/biorfarm-icon-mandarino-tardivo-di-ciaculli_tree.png",
      "number": 1,
      "co2_unit": 0.06077,
      "farmer_name": "Fratelli Marceno",
      "location_country": " Palermo, Sicilia",
      "location_province": "Palermo (PA)",
      "selected": true,
      "co2": "0,061"
    },
    {
      "fruit_id": 114603,
      "name": "mela gala casarotti",
      "icon_tree": "https://res.cloudinary.com/biorfarm/image/upload/v1561477693/fruits/biorfarm-icon-mela_gala_tree.png",
      "number": 1,
      "co2_unit": 0.04,
      "farmer_name": "Az. Agricola Famiglia Casarotti",
      "location_country": "Caldiero, Veneto",
      "location_province": "Caldiero, Verona (VR)",
      "selected": true,
      "co2": "0,040"
    },
    {
      "fruit_id": 679,
      "name": "mela golden delicious",
      "icon_tree": "https://res.cloudinary.com/biorfarm/image/upload/v1561477693/fruits/biorfarm-icon-mela_golden_tree.png",
      "number": 1,
      "co2_unit": 0.04,
      "farmer_name": "Paolo Rossi",
      "location_country": "Clès, Trentino",
      "location_province": "Val di Non, Trento (TN)",
      "selected": true,
      "co2": "0,040"
    },
    {
      "fruit_id": 17812,
      "name": "nettarina di faenza",
      "icon_tree": "https://res.cloudinary.com/biorfarm/image/upload/v1561477693/fruits/biorfarm-icon-nettarina_tree.png",
      "number": 1,
      "co2_unit": 0.089,
      "farmer_name": "Daniele Bucci",
      "location_country": "Faenza, Emilia Romagna",
      "location_province": "Faenza, Ravenna (RA)",
      "selected": true,
      "co2": "0,089"
    },
    {
      "fruit_id": 11636,
      "name": "pera williams",
      "icon_tree": "https://res.cloudinary.com/biorfarm/image/upload/v1561477693/fruits/biorfarm-icon-pera_williams_tree.png",
      "number": 1,
      "co2_unit": 0.046,
      "farmer_name": "Fratelli Brero",
      "location_country": "Lagnasco, Piemonte",
      "location_province": "Lagnasco, Cuneo (CN)",
      "selected": true,
      "co2": "0,046"
    },
    {
      "fruit_id": 135921,
      "name": "pesca royal summer",
      "icon_tree": "https://res.cloudinary.com/biorfarm/image/upload/v1620376201/fruits/biorfarm-icon-pesca-royal-summer_tree.png",
      "number": 1,
      "co2_unit": 0.063,
      "farmer_name": "Famiglia Scardovi",
      "location_country": "Faenza, Emilia Romagna",
      "location_province": "Faenza, Ravenna (RA)",
      "selected": true,
      "co2": "0,063"
    },
    {
      "fruit_id": 17811,
      "name": "susina nera",
      "icon_tree": "https://res.cloudinary.com/biorfarm/image/upload/v1561477693/fruits/biorfarm-icon-susina_nera_tree.png",
      "number": 1,
      "co2_unit": 0.024,
      "farmer_name": "Daniele Bucci",
      "location_country": "Faenza, Emilia Romagna",
      "location_province": "Faenza, Ravenna (RA)",
      "selected": true,
      "co2": "0,024"
    },
    {
      "fruit_id": 70009,
      "name": "uva crimson rossa",
      "icon_tree": "https://res.cloudinary.com/biorfarm/image/upload/v1591869855/fruits/biorfarm-icon-uva-crimson-rossa_tree.png",
      "number": 5,
      "co2_unit": 0.04,
      "farmer_name": "Famiglia Galante",
      "location_country": "Ginosa, Puglia",
      "location_province": "Ginosa, Taranto (TA)",
      "selected": true,
      "co2": "0,200"
    }
  ]