[
    {
      "fruit_id": 188282,
      "name": "albicoca precoce",
      "icon_tree": "https://res.cloudinary.com/biorfarm/image/upload/v1561625041/fruits/biorfarm-icon-albicocca_rossa_fruit.png",
      "number": 50,
      "co2_unit": 0.07,
      "farmer_name": "Famiglia Dell'Orto",
      "location_country": "Piana del Sele, Campania",
      "location_province": "Piana del Sele, Salerno (SA)",
      "selected": true,
      "co2": "3,50"
    },
    {
      "fruit_id": 112368,
      "name": "cachi di romagna",
      "icon_tree": "https://res.cloudinary.com/biorfarm/image/upload/v1583752500/fruits/biorfarm-icon-caco-loto-di-romagna_tree.png",
      "number": 50,
      "co2_unit": 0.0206,
      "farmer_name": "Famiglia Scardovi",
      "location_country": "Faenza, Emilia Romagna",
      "location_province": "Faenza, Ravenna (RA)",
      "selected": true,
      "co2": "1,03"
    },
    {
      "fruit_id": 224750,
      "name": "giuggiola",
      "icon_tree": "https://res.cloudinary.com/biorfarm/image/upload/v1593708292/fruits/biorfarm-icon-giuggiola_tree.png",
      "number": 50,
      "co2_unit": 0.09597,
      "farmer_name": "Azienda Agricola Buccolini",
      "location_country": "Macerata, Marche",
      "location_province": "Macerata (MC)",
      "selected": true,
      "co2": "4,80"
    },
    {
      "fruit_id": 150358,
      "name": "olivo evo DOP tuscia",
      "icon_tree": "https://res.cloudinary.com/biorfarm/image/upload/v1634203069/fruits/biorfarm-icon-olivo-evo-dop-tuscia_tree.png",
      "number": 50,
      "co2_unit": 0.3,
      "farmer_name": "Giorgio Grani",
      "location_country": "Viterbo, Lazio",
      "location_province": "Viterbo, (VT)",
      "selected": true,
      "co2": "15,00"
    },
    {
      "fruit_id": 17811,
      "name": "susina nera",
      "icon_tree": "https://res.cloudinary.com/biorfarm/image/upload/v1561477693/fruits/biorfarm-icon-susina_nera_tree.png",
      "number": 50,
      "co2_unit": 0.024,
      "farmer_name": "Daniele Bucci",
      "location_country": "Faenza, Emilia Romagna",
      "location_province": "Faenza, Ravenna (RA)",
      "selected": true,
      "co2": "1,20"
    }
  ]