[
    {
      "fruit_id": 121532,
      "name": "arancia newhall",
      "icon_tree": "https://res.cloudinary.com/biorfarm/image/upload/v1615482760/fruits/biorfarm-icon-arancia_newhall_tree.png",
      "number": 5,
      "co2_unit": 0.07,
      "farmer_name": "Bruno Messina",
      "location_country": "Rosarno, Calabria",
      "location_province": "Rosarno, Reggio Calabria (RC)",
      "selected": true,
      "co2": "0,35"
    },
    {
      "fruit_id": 75225,
      "name": "arancia tarocco sant'alfio",
      "icon_tree": "https://res.cloudinary.com/biorfarm/image/upload/v1595581977/fruits/biorfarm-icon-arancia-tarocco-sant-alfio_tree.png",
      "number": 5,
      "co2_unit": 0.07,
      "farmer_name": "Emanuele Calvo",
      "location_country": "Mineo, Sicilia",
      "location_province": "Mineo, Catania (CT)",
      "selected": true,
      "co2": "0,35"
    },
    {
      "fruit_id": 234528,
      "name": "clementina calabrese",
      "icon_tree": "https://res.cloudinary.com/biorfarm/image/upload/v1667494960/fruits/clementina-calabrese-lamenza-biorfarm-frutta.jpg",
      "number": 5,
      "co2_unit": 0.06,
      "farmer_name": "Az. Agricola Paolo Maria Lamenza",
      "location_country": "Corigliano-Rossano, Calabria",
      "location_province": "Corigliano-Rossano, Cosenza (CS)",
      "selected": true,
      "co2": "0,30"
    },
    {
      "fruit_id": 155931,
      "name": "mandarino tardivo di ciaculli",
      "icon_tree": "https://res.cloudinary.com/biorfarm/image/upload/v1595409710/fruits/biorfarm-icon-mandarino-tardivo-di-ciaculli_tree.png",
      "number": 5,
      "co2_unit": 0.06077,
      "farmer_name": "Filippo Licari",
      "location_country": "Marsala, Sicilia",
      "location_province": "Marsala, Trapani (TP)",
      "selected": true,
      "co2": "0,30"
    }
  ]