[
    {
      "fruit_id": 113208,
      "name": "clementina tardiva",
      "icon_tree": "https://res.cloudinary.com/biorfarm/image/upload/v1610451045/fruits/biorfarm-icon-clementina-tardiva_tree.png",
      "number": 215,
      "co2_unit": 0.065,
      "farmer_name": "Az. Agricola Paolo Maria Lamenza",
      "location_country": "Corigliano-Rossano, Calabria",
      "location_province": "Corigliano-Rossano, Cosenza (CS)",
      "selected": true,
      "co2": "13,97"
    }
  ]