[
    {
      "fruit_id": 188282,
      "name": "albicoca precoce",
      "icon_tree": "https://res.cloudinary.com/biorfarm/image/upload/v1561625041/fruits/biorfarm-icon-albicocca_rossa_fruit.png",
      "number": 50,
      "co2_unit": 0.07,
      "farmer_name": "Famiglia Dell'Orto",
      "location_country": "Piana del Sele, Campania",
      "location_province": "Piana del Sele, Salerno (SA)",
      "selected": true,
      "co2": "3,50"
    },
    {
      "fruit_id": 167651,
      "name": "arancia biondo della riviera dei gelsomini",
      "icon_tree": "https://res.cloudinary.com/biorfarm/image/upload/v1639568082/fruits/biorfarm-icon-arancia-biondo_tree.png",
      "number": 20,
      "co2_unit": 0.07,
      "farmer_name": "Giovanni Zappavigna",
      "location_country": "Ardore, Calabria",
      "location_province": "Ardore, Reggio Calabria (RC)",
      "selected": true,
      "co2": "1,40"
    },
    {
      "fruit_id": 188931,
      "name": "arancia sanguinello antico",
      "icon_tree": "https://res.cloudinary.com/biorfarm/image/upload/v1561478223/fruits/biorfarm-icon-arancia-sanguinello_tree.png",
      "number": 20,
      "co2_unit": 0.07,
      "farmer_name": "Ilaria Campisi",
      "location_country": "Caulonia, Calabria",
      "location_province": "Caulonia, Reggio Calabria (RC)",
      "selected": true,
      "co2": "1,40"
    },
    {
      "fruit_id": 129165,
      "name": "arancia tarocco",
      "icon_tree": "https://res.cloudinary.com/biorfarm/image/upload/v1561478223/fruits/biorfarm-icon-arancia-tarocco_tree.png",
      "number": 20,
      "co2_unit": 0.07,
      "farmer_name": "Angela Arcoria",
      "location_country": "Paternò, Sicilia",
      "location_province": "Paternò, Catania (CT)",
      "selected": true,
      "co2": "1,40"
    },
    {
      "fruit_id": 102377,
      "name": "arancia tarocco gallo",
      "icon_tree": "https://res.cloudinary.com/biorfarm/image/upload/v1608220860/fruits/biorfarm-icon-arancia-tarocco-gallo_tree.png",
      "number": 20,
      "co2_unit": 0.07,
      "farmer_name": "Emanuele Calvo",
      "location_country": "Mineo, Sicilia",
      "location_province": "Mineo, Catania (CT)",
      "selected": true,
      "co2": "1,40"
    },
    {
      "fruit_id": 136868,
      "name": "mela annurca campana",
      "icon_tree": "https://res.cloudinary.com/biorfarm/image/upload/v1620924659/fruits/biorfarm-icon-mela-annurca-campana_tree.png",
      "number": 20,
      "co2_unit": 0.04,
      "farmer_name": "Castrese Galluccio",
      "location_country": "Giugliano in Campania, Campania",
      "location_province": "Giugliano in Campania, Napoli (NA)",
      "selected": true,
      "co2": "0,80"
    },
    {
      "fruit_id": 17812,
      "name": "nettarina di faenza",
      "icon_tree": "https://res.cloudinary.com/biorfarm/image/upload/v1561477693/fruits/biorfarm-icon-nettarina_tree.png",
      "number": 20,
      "co2_unit": 0.089,
      "farmer_name": "Daniele Bucci",
      "location_country": "Faenza, Emilia Romagna",
      "location_province": "Faenza, Ravenna (RA)",
      "selected": true,
      "co2": "1,78"
    },
    {
      "fruit_id": 69905,
      "name": "pera coscia",
      "icon_tree": "https://res.cloudinary.com/biorfarm/image/upload/v1591799301/fruits/biorfarm-icon-pera-coscia_tree.png",
      "number": 20,
      "co2_unit": 0.046,
      "farmer_name": "Famiglia Virzì",
      "location_country": "Cesarò, Sicilia",
      "location_province": "Cesarò, Messina (ME)",
      "selected": true,
      "co2": "0,92"
    },
    {
      "fruit_id": 127213,
      "name": "pera williams",
      "icon_tree": "https://res.cloudinary.com/biorfarm/image/upload/v1561477693/fruits/biorfarm-icon-pera_williams_tree.png",
      "number": 20,
      "co2_unit": 0.046,
      "farmer_name": "Mirko Bezzi",
      "location_country": "Urbana, Veneto",
      "location_province": "Urbana, Padova (PD)",
      "selected": true,
      "co2": "0,92"
    },
    {
      "fruit_id": 70009,
      "name": "uva crimson rossa",
      "icon_tree": "https://res.cloudinary.com/biorfarm/image/upload/v1591869855/fruits/biorfarm-icon-uva-crimson-rossa_tree.png",
      "number": 20,
      "co2_unit": 0.04,
      "farmer_name": "Famiglia Galante",
      "location_country": "Ginosa, Puglia",
      "location_province": "Ginosa, Taranto (TA)",
      "selected": true,
      "co2": "0,80"
    },
    {
      "fruit_id": 32926,
      "name": "uva vittoria",
      "icon_tree": "https://res.cloudinary.com/biorfarm/image/upload/v1591870312/fruits/biorfarm-icon-uva-bianca_tree.png",
      "number": 20,
      "co2_unit": 0.04,
      "farmer_name": "Antonia Giannella",
      "location_country": "San Ferdinando, Puglia",
      "location_province": "San Ferdinando di Puglia, Barletta-Andria-Trani (BT)",
      "selected": true,
      "co2": "0,80"
    }
  ]